European Cities

TAGS europe map xmap cities
SHARED On the map is highlighted

EASY
/*
MAP eu MARK 41.013611;28.955
Istanbul
*/

MAP eu MARK 55.75;37.616667
Moscow

MAP ceu MARK 51.507222;0.1275
London

MAP ceu MARK 52.516667;13.383333
Berlin

MAP ceu MARK 40.383333;-3.716667
Madrid

MAP ceu MARK 41.9;12.5
Rome

MAP ceu MARK 48.8567;2.3508
Paris

MAP ceu MARK 48.2;16.366667
Vienna

MAP ceu MARK 50.083333;14.416667
Prague

MAP ceu MARK 50.8467;4.3525
Brussels

MAP eu MARK 59.95;30.3
Saint Petersburg

MAP eu MARK 50.45;30.523333
Kyiv

MAP ceu MARK 47.4925;19.051389
Budapest

MAP ceu MARK 52.233333;21.016667
Warsaw

MAP eu MARK 64.15;-21.95
Reykjavik

MAP eu MARK 59.329444;18.068611
Stockholm

MAP ceu MARK 49.6;6.116667
Luxembourg

MAP ceu MARK 37.983972;23.727806
Athens

MAP ceu MARK 44.4325;26.103889
Bucharest

MAP ceu MARK 44.80401;20.46513
Belgrade

MAP ceu MARK 42.7;23.33
Sofia

MAP ceu MARK 55.676111;12.568333
Copenhagen

MEDIUM
MAP ceu MARK 50.083333;14.416667
Prague

MAP ceu MARK 45.816667;15.983333
Zagreb

MAP ceu MARK 43.86666667;18.416667
Sarajevo

MAP ceu MARK 42.43333333;19.266667
Podgorica

MAP ceu MARK 41.31666667;19.816667
Tirana

MAP ceu MARK 42.6666666;21.166667
Pristina

MAP ceu MARK 42;21.433333
Skopje

MAP ceu MARK 46.05;14.516667
Ljubljana

MAP eu MARK 53.9;27.566667
Minsk

MAP ceu MARK 54.68333333;25.316667
Vilnius

MAP ceu MARK 56.95;24.1
Riga

MAP ceu MARK 59.43333333;24.716667
Tallinn

MAP eu MARK 60.16666667;24.933333
Helsinki

MAP eu MARK 59.916667;10.733333
Oslo

MAP ceu MARK 52.483056;-1.893611
Birmingham

MAP eu MARK 50.004444;36.231389
Kharkiv

MAP ceu MARK 50.06143;19.93658
Kraków

MAP eu MARK 57.7;11.966667
Gothenburg

MAP ceu MARK 52.07667;4.29861
The Hague

MAP ceu MARK 51.21989;4.40346
Antwerpen

MAP ceu MARK 46.20222;6.14569
Genève

MAP ceu MARK 45.4375;12.335833
Venice

MAP ceu MARK 38.13205;13.33561
Palermo

MAP ceu MARK 45.46427;9.18951
Milano

MAP ceu MARK 41.38879;2.15899
Barcelona

MAP ceu MARK 37.38283;-5.97317
Sevilla

MAP ceu MARK 45.74846;4.84671
Lyon

MAP ceu MARK 43.29695;5.38107
Marseille

MAP ceu MARK 53.575323;10.01534
Hamburg

MAP ceu MARK 48.15;11.583333
Munich

MAP ceu MARK 41.65606;-0.87734
Zaragoza

MAP ceu MARK 49.19522;16.60796
Brno

MAP ceu MARK 48.143889;17.109722
Bratislava

HARD
MAP ceu MARK 42.15;24.75
Plovdiv

MAP eu MARK 43.216667;27.916667
Varna

MAP eu MARK 47.156944;27.590278
Iași

MAP ceu MARK 40.65;22.9
Thessaloniki

MAP ceu MARK 43.51;16.45
Split

MAP ceu MARK 44.114167;15.227778
Zadar

MAP ceu MARK 45.25167;19.83694
Novi Sad

MAP ceu MARK 43.32472;21.90333
Niš

MAP ceu MARK 47.52997;21.63916
Debrecen

MAP ceu MARK 46.255;20.145
Szeged

MAP ceu MARK 54.35205;18.64637
Gdańsk

MAP ceu MARK 52.40692;16.92993
Poznań

MAP ceu MARK 51.1;17.03333
Wrocław

MAP ceu MARK 51.75;19.46667
Łódź

MAP eu MARK 48.002778;37.805278
Donetsk

MAP eu MARK 47.833333;35.166667
Zaporizhia

MAP eu MARK 49.83;24.014167
Lviv

MAP eu MARK 52.445278;30.984167
Gomel

MAP eu MARK 52.083333;23.7
Brest (Litowsk)

MAP ceu MARK 55.605833;13.035833
Malmö

MAP eu MARK 63.429722;10.393333
Trondheim

MAP eu MARK 60.389444;5.33
Bergen

MAP ceu MARK 56.156389;10.209722
Aarhus

MAP ceu MARK 52.09083;5.12222
Utrecht

MAP ceu MARK 51.9225;4.47917
Rotterdam

MAP ceu MARK 50.41136;4.44448
Charleroi

MAP ceu MARK 51.05;3.71667
Gent

MAP ceu MARK 47.06667;15.45
Graz

MAP ceu MARK 47.36667;8.55
Zürich

MAP ceu MARK 45.07049;7.68682
Turin

MAP ceu MARK 40.85631;14.24641
Napoli

MAP ceu MARK 41.14961;-8.61099
Porto

MAP ceu MARK 39.46975;-0.37739
Valencia

MAP ceu MARK 43.70313;7.26608
Nice

MAP ceu MARK 48.58392;7.74553
Strasbourg

MAP ceu MARK 43.60426;1.44367
Toulouse

MAP ceu MARK 50.933333;6.95
Cologne

MAP ceu MARK 50.11552;8.684167
Frankfurt

MAP ceu MARK 48.782343;9.180819
Stuttgart

MAP ceu MARK 49.19522;16.60796
Brno

MAP ceu MARK 49.83465;18.28204
Ostrava

MAP ceu MARK 49.74747;13.37759
Pilsen

MAP ceu MARK 49.593889;17.250833
Olomouc

MAP ceu MARK 48.716667;21.25
Košice
